<?xml version="1.0" encoding="UTF-8" standalone="no"?>
<svg xmlns="http://www.w3.org/2000/svg"
     xmlns:xlink="http://www.w3.org/1999/xlink"
     width="576pt" height="432pt" viewBox="0 0 576 432">
<title>gl2ps_renderer figure</title>
<desc>
Creator: GL2PS 1.4.0, (C) 1999-2017 C. Geuzaine
For: Octave
CreationDate: Wed Jan  2 11:26:07 2019
</desc>
<defs>
</defs>
<polygon fill="#ffffff" points="0,0 576,0 576,432 0,432"/>
<g>
<polygon fill="#ffffff" points="0,432 576,432 576,0 0,0" shape-rendering="crispEdges"/>
<clipPath id="cp00576432">
  <polygon points="0,432 576,432 576,0 0,0"/>
</clipPath>
<g clip-path="url(#cp00576432)">
<polygon fill="#ffffff" shape-rendering="crispEdges" points="74.8799,384.48 521.28,384.48 521.28,32.3999"/>
<polygon fill="#ffffff" shape-rendering="crispEdges" points="74.8799,384.48 521.28,32.3999 74.8799,32.3999"/>
<polyline fill="none" stroke="#262626" stroke-width="0.5" stroke-linecap="butt" stroke-linejoin="miter" stroke-opacity="0.15" stroke-dasharray="16,0" points="74.8799,384.48 74.8799,32.3999"/>
<polyline fill="none" stroke="#262626" stroke-width="0.5" stroke-linecap="butt" stroke-linejoin="miter" stroke-opacity="0.15" stroke-dasharray="16,0" points="164.16,384.48 164.16,32.3999"/>
<polyline fill="none" stroke="#262626" stroke-width="0.5" stroke-linecap="butt" stroke-linejoin="miter" stroke-opacity="0.15" stroke-dasharray="16,0" points="253.44,384.48 253.44,32.3999"/>
<polyline fill="none" stroke="#262626" stroke-width="0.5" stroke-linecap="butt" stroke-linejoin="miter" stroke-opacity="0.15" stroke-dasharray="16,0" points="342.72,384.48 342.72,32.3999"/>
<polyline fill="none" stroke="#262626" stroke-width="0.5" stroke-linecap="butt" stroke-linejoin="miter" stroke-opacity="0.15" stroke-dasharray="16,0" points="432,384.48 432,32.3999"/>
<polyline fill="none" stroke="#262626" stroke-width="0.5" stroke-linecap="butt" stroke-linejoin="miter" stroke-opacity="0.15" stroke-dasharray="16,0" points="521.28,384.48 521.28,32.3999"/>
<polyline fill="none" stroke="#262626" stroke-width="0.5" stroke-linecap="butt" stroke-linejoin="miter" points="74.8799,384.48 74.8799,380.015"/>
<polyline fill="none" stroke="#262626" stroke-width="0.5" stroke-linecap="butt" stroke-linejoin="miter" points="74.8799,32.3999 74.8799,36.8652"/>
<polyline fill="none" stroke="#262626" stroke-width="0.5" stroke-linecap="butt" stroke-linejoin="miter" points="164.16,384.48 164.16,380.015"/>
<polyline fill="none" stroke="#262626" stroke-width="0.5" stroke-linecap="butt" stroke-linejoin="miter" points="164.16,32.3999 164.16,36.8652"/>
<polyline fill="none" stroke="#262626" stroke-width="0.5" stroke-linecap="butt" stroke-linejoin="miter" points="253.44,384.48 253.44,380.015"/>
<polyline fill="none" stroke="#262626" stroke-width="0.5" stroke-linecap="butt" stroke-linejoin="miter" points="253.44,32.3999 253.44,36.8652"/>
<polyline fill="none" stroke="#262626" stroke-width="0.5" stroke-linecap="butt" stroke-linejoin="miter" points="342.72,384.48 342.72,380.015"/>
<polyline fill="none" stroke="#262626" stroke-width="0.5" stroke-linecap="butt" stroke-linejoin="miter" points="342.72,32.3999 342.72,36.8652"/>
<polyline fill="none" stroke="#262626" stroke-width="0.5" stroke-linecap="butt" stroke-linejoin="miter" points="432,384.48 432,380.015"/>
<polyline fill="none" stroke="#262626" stroke-width="0.5" stroke-linecap="butt" stroke-linejoin="miter" points="432,32.3999 432,36.8652"/>
<polyline fill="none" stroke="#262626" stroke-width="0.5" stroke-linecap="butt" stroke-linejoin="miter" points="521.28,384.48 521.28,380.015"/>
<polyline fill="none" stroke="#262626" stroke-width="0.5" stroke-linecap="butt" stroke-linejoin="miter" points="521.28,32.3999 521.28,36.8652"/>
<text xml:space="preserve" transform="translate(71.88,400.481) rotate(-0,3,-11)" font-family="FreeSans" font-weight="normal" font-style="normal" font-size="10"><tspan y="-1" fill="rgb(38,38,38)" x="0 ">0</tspan></text>
<text xml:space="preserve" transform="translate(156.66,400.481) rotate(-0,7.5,-11)" font-family="FreeSans" font-weight="normal" font-style="normal" font-size="10"><tspan y="-1" fill="rgb(38,38,38)" x="0 6 9 ">0.2</tspan></text>
<text xml:space="preserve" transform="translate(245.94,400.481) rotate(-0,7.5,-11)" font-family="FreeSans" font-weight="normal" font-style="normal" font-size="10"><tspan y="-1" fill="rgb(38,38,38)" x="0 6 9 ">0.4</tspan></text>
<text xml:space="preserve" transform="translate(335.22,400.481) rotate(-0,7.5,-11)" font-family="FreeSans" font-weight="normal" font-style="normal" font-size="10"><tspan y="-1" fill="rgb(38,38,38)" x="0 6 9 ">0.6</tspan></text>
<text xml:space="preserve" transform="translate(424.5,400.481) rotate(-0,7.5,-11)" font-family="FreeSans" font-weight="normal" font-style="normal" font-size="10"><tspan y="-1" fill="rgb(38,38,38)" x="0 6 9 ">0.8</tspan></text>
<text xml:space="preserve" transform="translate(518.28,400.481) rotate(-0,3,-11)" font-family="FreeSans" font-weight="normal" font-style="normal" font-size="10"><tspan y="-1" fill="rgb(38,38,38)" x="0 ">1</tspan></text>
<polyline fill="none" stroke="#262626" stroke-width="0.5" stroke-linecap="butt" stroke-linejoin="miter" stroke-opacity="0.15" stroke-dasharray="16,0" points="74.8799,384.48 521.28,384.48"/>
<polyline fill="none" stroke="#262626" stroke-width="0.5" stroke-linecap="butt" stroke-linejoin="miter" stroke-opacity="0.15" stroke-dasharray="16,0" points="74.8799,314.064 521.28,314.064"/>
<polyline fill="none" stroke="#262626" stroke-width="0.5" stroke-linecap="butt" stroke-linejoin="miter" stroke-opacity="0.15" stroke-dasharray="16,0" points="74.8799,243.648 521.28,243.648"/>
<polyline fill="none" stroke="#262626" stroke-width="0.5" stroke-linecap="butt" stroke-linejoin="miter" stroke-opacity="0.15" stroke-dasharray="16,0" points="74.8799,173.232 521.28,173.232"/>
<polyline fill="none" stroke="#262626" stroke-width="0.5" stroke-linecap="butt" stroke-linejoin="miter" stroke-opacity="0.15" stroke-dasharray="16,0" points="74.8799,102.816 521.28,102.816"/>
<polyline fill="none" stroke="#262626" stroke-width="0.5" stroke-linecap="butt" stroke-linejoin="miter" stroke-opacity="0.15" stroke-dasharray="16,0" points="74.8799,32.3999 521.28,32.3999"/>
<polyline fill="none" stroke="#262626" stroke-width="0.5" stroke-linecap="butt" stroke-linejoin="miter" points="74.8799,384.48 79.3481,384.48"/>
<polyline fill="none" stroke="#262626" stroke-width="0.5" stroke-linecap="butt" stroke-linejoin="miter" points="521.28,384.48 516.812,384.48"/>
<polyline fill="none" stroke="#262626" stroke-width="0.5" stroke-linecap="butt" stroke-linejoin="miter" points="74.8799,314.064 79.3481,314.064"/>
<polyline fill="none" stroke="#262626" stroke-width="0.5" stroke-linecap="butt" stroke-linejoin="miter" points="521.28,314.064 516.812,314.064"/>
<polyline fill="none" stroke="#262626" stroke-width="0.5" stroke-linecap="butt" stroke-linejoin="miter" points="74.8799,243.648 79.3481,243.648"/>
<polyline fill="none" stroke="#262626" stroke-width="0.5" stroke-linecap="butt" stroke-linejoin="miter" points="521.28,243.648 516.812,243.648"/>
<polyline fill="none" stroke="#262626" stroke-width="0.5" stroke-linecap="butt" stroke-linejoin="miter" points="74.8799,173.232 79.3481,173.232"/>
<polyline fill="none" stroke="#262626" stroke-width="0.5" stroke-linecap="butt" stroke-linejoin="miter" points="521.28,173.232 516.812,173.232"/>
<polyline fill="none" stroke="#262626" stroke-width="0.5" stroke-linecap="butt" stroke-linejoin="miter" points="74.8799,102.816 79.3481,102.816"/>
<polyline fill="none" stroke="#262626" stroke-width="0.5" stroke-linecap="butt" stroke-linejoin="miter" points="521.28,102.816 516.812,102.816"/>
<polyline fill="none" stroke="#262626" stroke-width="0.5" stroke-linecap="butt" stroke-linejoin="miter" points="74.8799,32.3999 79.3481,32.3999"/>
<polyline fill="none" stroke="#262626" stroke-width="0.5" stroke-linecap="butt" stroke-linejoin="miter" points="521.28,32.3999 516.812,32.3999"/>
<text xml:space="preserve" transform="translate(63.8755,389.98) rotate(-0,6,-5.5)" font-family="FreeSans" font-weight="normal" font-style="normal" font-size="10"><tspan y="-1" fill="rgb(38,38,38)" x="0 ">0</tspan></text>
<text xml:space="preserve" transform="translate(48.8755,319.564) rotate(-0,21,-5.5)" font-family="FreeSans" font-weight="normal" font-style="normal" font-size="10"><tspan y="-1" fill="rgb(38,38,38)" x="0 6 9 15 ">0.05</tspan></text>
<text xml:space="preserve" transform="translate(54.8755,249.148) rotate(-0,15,-5.5)" font-family="FreeSans" font-weight="normal" font-style="normal" font-size="10"><tspan y="-1" fill="rgb(38,38,38)" x="0 6 9 ">0.1</tspan></text>
<text xml:space="preserve" transform="translate(48.8755,178.732) rotate(-0,21,-5.5)" font-family="FreeSans" font-weight="normal" font-style="normal" font-size="10"><tspan y="-1" fill="rgb(38,38,38)" x="0 6 9 15 ">0.15</tspan></text>
<text xml:space="preserve" transform="translate(54.8755,108.316) rotate(-0,15,-5.5)" font-family="FreeSans" font-weight="normal" font-style="normal" font-size="10"><tspan y="-1" fill="rgb(38,38,38)" x="0 6 9 ">0.2</tspan></text>
<text xml:space="preserve" transform="translate(48.8755,37.9) rotate(-0,21,-5.5)" font-family="FreeSans" font-weight="normal" font-style="normal" font-size="10"><tspan y="-1" fill="rgb(38,38,38)" x="0 6 9 15 ">0.25</tspan></text>
<polyline fill="none" stroke="#262626" stroke-width="0.5" stroke-linecap="square" stroke-linejoin="miter" stroke-dasharray="16,0" points="74.8799,384.48 521.28,384.48"/>
<polyline fill="none" stroke="#262626" stroke-width="0.5" stroke-linecap="square" stroke-linejoin="miter" stroke-dasharray="16,0" points="74.8799,32.3999 521.28,32.3999"/>
<polyline fill="none" stroke="#262626" stroke-width="0.5" stroke-linecap="square" stroke-linejoin="miter" stroke-dasharray="16,0" points="74.8799,384.48 74.8799,32.3999"/>
<polyline fill="none" stroke="#262626" stroke-width="0.5" stroke-linecap="square" stroke-linejoin="miter" stroke-dasharray="16,0" points="521.28,384.48 521.28,32.3999"/>
<text xml:space="preserve" transform="translate(295.58,413.481) rotate(-0,2.5,-13)" font-family="FreeSans" font-weight="normal" font-style="normal" font-size="11"><tspan y="-2" fill="rgb(38,38,38)" x="0 ">x</tspan></text>
<text xml:space="preserve" transform="translate(41.8755,208.44) rotate(-90,3,0)" font-family="FreeSans" font-weight="normal" font-style="normal" font-size="11"><tspan y="-2" fill="rgb(38,38,38)" x="0 ">u</tspan></text>
<text xml:space="preserve" transform="translate(126.08,22.4) rotate(-0,172,0)" font-family="FreeSans" font-weight="bold" font-style="normal" font-size="11"><tspan y="-2" fill="rgb(0,0,0)" x="0 8 15 25 32 39 45 52 58 65 72 78 81 89 96 103 110 117 123 127 133 136 144 147 151 154 160 167 170 176 180 183 191 198 205 212 215 219 222 229 236 239 243 250 254 257 264 271 277 280 286 294 297 303 310 317 323 327 330 337 ">Homogeneous Boundary Dirichlet Condition for one 1D equation</tspan></text>
<polyline fill="none" stroke="#0071bc" stroke-width="1.3" stroke-linecap="butt" stroke-linejoin="round" points="74.8799,384.48 79.3438,370.538 83.8081,356.877 88.272,343.498 92.7358,330.4 97.2002,317.585 101.664,305.051 106.128,292.798 110.592,280.828 115.056,269.139 119.52,257.731 123.984,246.605 128.448,235.761 132.912,225.199 137.376,214.918 141.84,204.919 146.304,195.202 150.768,185.766 155.232,176.612 159.696,167.74 164.16,159.149 168.624,150.84 173.088,142.812 177.552,135.066 182.016,127.603 186.48,120.42 190.944,113.519 195.408,106.9 199.872,100.562 204.336,94.5068 208.8,88.7329 213.264,83.2402 217.728,78.0298 222.192,73.1006 226.656,68.4531 231.12,64.0874 235.584,60.0029 240.048,56.2007 244.512,52.6797 248.976,49.4404 253.44,46.4834 257.904,43.8076 262.368,41.4131 266.832,39.3008 271.296,37.4697 275.76,35.9209 280.224,34.6533 284.688,33.6675 289.152,32.9634 293.616,32.541 298.08,32.3999 302.544,32.541 307.008,32.9634 311.472,33.6675 315.936,34.6533 320.4,35.9209 324.864,37.4697 329.328,39.3008 333.792,41.4131 338.256,43.8076 342.72,46.4834 347.184,49.4404 351.648,52.6797 356.112,56.2007 360.576,60.0029 365.04,64.0874 369.504,68.4531 373.968,73.1006 378.432,78.0298 382.896,83.2402 387.36,88.7329 391.824,94.5068 396.288,100.562 400.752,106.9 405.216,113.519 409.68,120.42 414.144,127.603 418.608,135.066 423.072,142.812 427.536,150.84 432,159.149 436.464,167.74 440.928,176.612 445.392,185.766 449.856,195.202 454.32,204.919 458.784,214.918 463.248,225.199 467.712,235.761 472.176,246.605 476.64,257.731 481.104,269.139 485.568,280.828 490.032,292.798 494.496,305.051 498.96,317.585 503.424,330.4 507.888,343.498 512.352,356.877 516.816,370.538 521.28,384.48"/>
<polyline fill="none" stroke="#d85218" stroke-width="1.3" stroke-linecap="butt" stroke-linejoin="round" points="74.8799,384.48 79.3438,376.719 83.8081,368.967 88.272,361.23 92.7358,353.517 97.2002,345.836 101.664,338.195 106.128,330.602 110.592,323.064 115.056,315.589 119.52,308.185 123.984,300.858 128.448,293.617 132.912,286.469 137.376,279.421 141.84,272.48 146.304,265.653 150.768,258.946 155.232,252.367 159.696,245.921 164.16,239.615 168.624,233.455 173.088,227.447 177.552,221.597 182.016,215.911 186.48,210.393 190.944,205.049 195.408,199.884 199.872,194.903 204.336,190.111 208.8,185.511 213.264,181.109 217.728,176.909 222.192,172.913 226.656,169.126 231.12,165.552 235.584,162.192 240.048,159.052 244.512,156.133 248.976,153.438 253.44,150.968 257.904,148.728 262.368,146.718 266.832,144.94 271.296,143.396 275.76,142.088 280.224,141.016 284.688,140.181 289.152,139.584 293.616,139.226 298.08,139.106 302.544,139.226 307.008,139.584 311.472,140.181 315.936,141.016 320.4,142.088 324.864,143.396 329.328,144.94 333.792,146.718 338.256,148.728 342.72,150.968 347.184,153.438 351.648,156.133 356.112,159.052 360.576,162.192 365.04,165.552 369.504,169.126 373.968,172.913 378.432,176.909 382.896,181.109 387.36,185.511 391.824,190.111 396.288,194.903 400.752,199.884 405.216,205.049 409.68,210.393 414.144,215.911 418.608,221.597 423.072,227.447 427.536,233.455 432,239.615 436.464,245.921 440.928,252.367 445.392,258.946 449.856,265.653 454.32,272.48 458.784,279.421 463.248,286.469 467.712,293.617 472.176,300.858 476.64,308.185 481.104,315.589 485.568,323.064 490.032,330.602 494.496,338.195 498.96,345.836 503.424,353.517 507.888,361.23 512.352,368.967 516.816,376.719 521.28,384.48"/>
<polyline fill="none" stroke="#ecb01f" stroke-width="1.3" stroke-linecap="butt" stroke-linejoin="round" points="74.8799,384.48 79.3438,384.48 83.8081,384.48 88.272,384.48 92.7358,384.48 97.2002,384.48 101.664,384.48 106.128,384.48 110.592,384.48 115.056,384.48 119.52,384.48 123.984,384.48 128.448,384.48 132.912,384.48 137.376,384.48 141.84,384.48 146.304,384.48 150.768,384.48 155.232,384.48 159.696,384.48 164.16,384.48 168.624,384.48 173.088,384.48 177.552,384.48 182.016,384.48 186.48,384.48 190.944,384.48 195.408,384.48 199.872,384.48 204.336,384.48 208.8,384.48 213.264,384.48 217.728,384.48 222.192,384.48 226.656,384.48 231.12,384.48 235.584,384.48 240.048,384.48 244.512,384.48 248.976,384.48 253.44,384.48 257.904,384.48 262.368,384.48 266.832,384.48 271.296,384.48 275.76,384.48 280.224,384.48 284.688,384.48 289.152,384.48 293.616,384.48 298.08,384.48 302.544,384.48 307.008,384.48 311.472,384.48 315.936,384.48 320.4,384.48 324.864,384.48 329.328,384.48 333.792,384.48 338.256,384.48 342.72,384.48 347.184,384.48 351.648,384.48 356.112,384.48 360.576,384.48 365.04,384.48 369.504,384.48 373.968,384.48 378.432,384.48 382.896,384.48 387.36,384.48 391.824,384.48 396.288,384.48 400.752,384.48 405.216,384.48 409.68,384.48 414.144,384.48 418.608,384.48 423.072,384.48 427.536,384.48 432,384.48 436.464,384.48 440.928,384.48 445.392,384.48 449.856,384.48 454.32,384.48 458.784,384.48 463.248,384.48 467.712,384.48 472.176,384.48 476.64,384.48 481.104,384.48 485.568,384.48 490.032,384.48 494.496,384.48 498.96,384.48 503.424,384.48 507.888,384.48 512.352,384.48 516.816,384.48 521.28,384.48"/>
</g>
<clipPath id="cp00576432">
  <polygon points="0,432 576,432 576,0 0,0"/>
</clipPath>
<g clip-path="url(#cp00576432)">
<polygon fill="#ffffff" shape-rendering="crispEdges" points="428.037,77.3096 518.539,77.3096 518.539,35.1416"/>
<polygon fill="#ffffff" shape-rendering="crispEdges" points="428.037,77.3096 518.539,35.1416 428.037,35.1416"/>
<polyline fill="none" stroke="#262626" stroke-width="0.5" stroke-linecap="square" stroke-linejoin="miter" stroke-dasharray="16,0" points="428.037,77.3096 518.539,77.3096"/>
<polyline fill="none" stroke="#262626" stroke-width="0.5" stroke-linecap="square" stroke-linejoin="miter" stroke-dasharray="16,0" points="428.037,35.1416 518.539,35.1416"/>
<polyline fill="none" stroke="#262626" stroke-width="0.5" stroke-linecap="square" stroke-linejoin="miter" stroke-dasharray="16,0" points="428.037,77.3096 428.037,35.1416"/>
<polyline fill="none" stroke="#262626" stroke-width="0.5" stroke-linecap="square" stroke-linejoin="miter" stroke-dasharray="16,0" points="518.539,77.3096 518.539,35.1416"/>
<text xml:space="preserve" transform="translate(454.082,47.6696) rotate(-0,-0,-5.5)" font-family="FreeSans" font-weight="normal" font-style="normal" font-size="9"><tspan y="-1" fill="rgb(0,0,0)" x="0 2 7 9 12 14 19 21 23 28 33 38 43 45 48 50 55 ">initial condition</tspan></text>
<text xml:space="preserve" transform="translate(454.082,61.7256) rotate(-0,-0,-5.5)" font-family="FreeSans" font-weight="normal" font-style="normal" font-size="9"><tspan y="-1" fill="rgb(0,0,0)" x="0 5 8 12 15 17 22 24 29 34 39 44 49 54 ">u(x, 0.043203)</tspan></text>
<text xml:space="preserve" transform="translate(454.082,75.7815) rotate(-0,-0,-5.5)" font-family="FreeSans" font-weight="normal" font-style="normal" font-size="9"><tspan y="-1" fill="rgb(0,0,0)" x="0 4 9 11 16 19 21 26 ">solution</tspan></text>
<polyline fill="none" stroke="#0071bc" stroke-width="1.3" stroke-linecap="butt" stroke-linejoin="round" points="430.778,42.1694 451.341,42.1694"/>
<polyline fill="none" stroke="#d85218" stroke-width="1.3" stroke-linecap="butt" stroke-linejoin="round" points="430.778,56.2256 451.341,56.2256"/>
<polyline fill="none" stroke="#ecb01f" stroke-width="1.3" stroke-linecap="butt" stroke-linejoin="round" points="430.778,70.2817 451.341,70.2817"/>
</g>
</g>
</svg>
